{
  "_meta": {
    "sources": [
      "loopback/common/models",
      "loopback/server/models",
      "../common/models",
      "./models"
    ],
    "mixins": [
      "loopback/common/mixins",
      "loopback/server/mixins",
      "../common/mixins",
      "./mixins"
    ]
  },
  "Container": {
    "dataSource": "psa-tnt",
    "public": true
  },
  "ContainerType": {
    "dataSource": "psa-tnt",
    "public": true
  },
  "Device": {
    "dataSource": "psa-tnt",
    "public": true
  },
  "Login": {
    "dataSource": "psa-tnt",
    "public": true
  },
  "GeoPosition": {
    "dataSource": "psa-tnt",
    "public": true
  },
  "Attribute": {
    "dataSource": "psa-tnt",
    "public": true
  },
  "Site": {
    "dataSource": "psa-tnt",
    "public": true
  },
  "Init": {
    "dataSource": "psa-tnt",
    "public": true
  },
  "TechnicalData": {
    "dataSource": "psa-tnt",
    "public": true
  },
  "WifiAccessPoint": {
    "dataSource": "psa-tnt",
    "public": true
  },
  "SimulatedTruck": {
    "dataSource": "psa-tnt",
    "public": true
  },
  "RulesAudit": {
    "dataSource": "psa-tnt",
    "public": true
  },
  "WifilocAudit": {
    "dataSource": "psa-tnt",
    "public": true
  },
  "AccessToken": {
    "dataSource": "psa-tnt",
    "public": false,
    "strict": true
  },
  "ACL": {
    "dataSource": "psa-tnt",
    "public": false,
    "strict": true
  }
}
