{
  "10811": {
    "description": "Emballage planche de bord P8X",
    "category": "spécifique"
  },
  "10803": {
    "description": "Emballage insonorisation tablier habitacle P8x",
    "category": "spécifique"
  },
  "10035": {
    "description": "Emballage polyvalent",
    "category": "polyvalent"
  }
}
